%YAML 1.1
%TAG !u! tag:unity3d.com,2011:
--- !u!1045 &1
EditorBuildSettings:
  m_ObjectHideFlags: 0
  serializedVersion: 2
  m_Scenes:
  - enabled: 1
    path: Assets/Scenes/StartScene.unity
    guid: 6d98b6ad76f55fe4081ab3cfb684ff73
  - enabled: 1
    path: Assets/Scenes/MainGameScene.unity
    guid: 9fc0d4010bbf28b4594072e72b8655ab
  - enabled: 1
    path: Assets/Scenes/EndScene.unity
    guid: a8af8397b192fbb459a8abedc8465965
  m_configObjects: {}
